…
Tidy

As ever, first thing is to look at your data. Use the chunk below.

sparrows

## # A tibble: 136 x 11
##    Sex   Age   Survival Length Wingspread Weight skull_width_len
##    <chr> <chr> <chr>     <int>      <int>  <dbl> <chr>           
##  1 Male  Adult Alive       154        241   24.5 14.9;31.2       
##  2 Male  Adult Alive       160        252   26.9 15.3;30.8       
##  3 Male  Adult Alive       155        243   26.9 15.3;30.6       
##  4 Male  Adult Alive       154        245   24.3 14.8;31.7       
##  5 Male  Adult Alive       156        247   24.1 14.6;31.5       
##  6 Male  Adult Alive       161        253   26.5 15.4;31.8       
##  7 Male  Adult Alive       157        251   24.6 15.5;31.1       
##  8 Male  Adult Alive       159        247   24.2 15.5;31.4       
##  9 Male  Adult Alive       158        247   23.6 15.3;29.8       
## 10 Male  Adult Alive       158        252   26.2 15.6;32         
## # ... with 126 more rows, and 4 more variables: Humerus_Length <dbl>,
## #   Femur_Length <dbl>, Tarsus_Length <dbl>, Sternum_Length <dbl>
…
Tidy

As ever, first thing is to look at your data. Use the chunk below.

wine

## # A tibble: 534 x 8
##    Cultivar Alcohol MalicAcid   Ash Magnesium Color `phenol/flav` value
##       <int>   <dbl>     <dbl> <dbl>     <int> <dbl> <chr>         <dbl>
##  1        1    14.2      1.71  2.43       127  5.64 TotalPhenol    2.8 
##  2        1    13.2      1.78  2.14       100  4.38 TotalPhenol    2.65
##  3        1    13.2      2.36  2.67       101  5.68 TotalPhenol    2.8 
##  4        1    14.4      1.95  2.5        113  7.8  TotalPhenol    3.85
##  5        1    13.2      2.59  2.87       118  4.32 TotalPhenol    2.8 
##  6        1    14.2      1.76  2.45       112  6.75 TotalPhenol    3.27
##  7        1    14.4      1.87  2.45        96  5.25 TotalPhenol    2.5 
##  8        1    14.1      2.15  2.61       121  5.05 TotalPhenol    2.6 
##  9        1    14.8      1.64  2.17        97  5.2  TotalPhenol    2.8 
## 10        1    13.9      1.35  2.27        98  7.22 TotalPhenol    2.98
## # ... with 524 more rows
…
# rowan.csv
rowan <- read_csv('practice_files/rowan2.csv')

## Parsed with column specification:
## cols(
##   `altitude  resp.rate   nesting microphylla oligodonta  sargentiana` = col_character()
## )

Tidy

As ever, first thing is to look at your data. Use the chunk below.

rowan

## # A tibble: 300 x 1
##    `altitude\tresp.rate\tnesting\tmicrophylla\toligodonta\tsargentiana`
##    <chr>                                                               
##  1 "90\t0.041\ty\tNA\tNA\t28.6"                                        
##  2 "93\t0.116\ty\t8.8\tNA\tNA"                                         
##  3 "152\t0.105\ty\tNA\tNA\t30.2"                                       
##  4 "167\t0.074\tn\tNA\t11\tNA"                                         
##  5 "184\t0.181\tn\tNA\tNA\t21.7"                                       
##  6 "193\t0.043\tn\t7.3\tNA\tNA"                                        
##  7 "199\t0.068\tn\tNA\tNA\t39.3"                                       
##  8 "208\t0.062\tn\tNA\t17.8\tNA"                                       
##  9 "218\t0.048\tn\t8.4\tNA\tNA"                                        
## 10 "224\t0.247\tn\tNA\t10.5\tNA"                                       
## # ... with 290 more rows
…
