…
aov(cyl ~ qsec, data = mtcars) %>% glance()

## # A tibble: 1 x 11
##   r.squared adj.r.squared sigma statistic p.value    df logLik   AIC   BIC
## *     <dbl>         <dbl> <dbl>     <dbl>   <dbl> <int>  <dbl> <dbl> <dbl>
## 1     0.350         0.328  1.46      16.1 3.66e-4     2  -56.6  119.  124.
## # ... with 2 more variables: deviance <dbl>, df.residual <int>

augment()

Add the results of the test back to mtcars using augment()

aov(cyl ~ qsec, data = mtcars) %>% augment(mtcars)

## # A tibble: 32 x 19
##    .rownames   mpg   cyl  disp    hp  drat    wt  qsec    vs    am  gear
##  * <chr>     <dbl> <dbl> <dbl> <dbl> <dbl> <dbl> <dbl> <dbl> <dbl> <dbl>
##  1 Mazda RX4  21       6  160    110  3.9   2.62  16.5     0     1     4
##  2 Mazda RX  21       6  160    110  3.9   2.88  17.0     0     1     4
##  3 Datsun 7  22.8     4  108     93  3.85  2.32  18.6     1     1     4
##  4 Hornet 4  21.4     6  258    110  3.08  3.22  19.4     1     0     3
##  5 Hornet S  18.7     8  360    175  3.15  3.44  17.0     0     0     3
##  6 Valiant    18.1     6  225    105  2.76  3.46  20.2     1     0     3
##  7 Duster 3  14.3     8  360    245  3.21  3.57  15.8     0     0     3
##  8 Merc 240D  24.4     4  147.    62  3.69  3.19  20       1     0     4
##  9 Merc 230   22.8     4  141.    95  3.92  3.15  22.9     1     0     4
## 10 Merc 280   19.2     6  168.   123  3.92  3.44  18.3     1     0     4
## # ... with 22 more rows, and 8 more variables: carb <dbl>, .fitted <dbl>,
## #   .se.fit <dbl>, .resid <dbl>, .hat <dbl>, .sigma <dbl>, .cooksd <dbl>,
## #   .std.resid <dbl>
…
