…
aov(Sepal.Length ~ Species, data = iris) %>% TukeyHSD() %>% tidy()

## # A tibble: 3 x 6
##   term    comparison           estimate conf.low conf.high adj.p.value
##   <chr>   <chr>                   <dbl>    <dbl>     <dbl>       <dbl>
## 1 Species versicolor-setosa       0.93     0.686     1.17     3.39e-14
## 2 Species virginica-setosa        1.58     1.34      1.83     3.00e-15
## 3 Species virginica-versicolor    0.652    0.408     0.896    8.29e- 9

One thing you have to watch out for with TukeyHSD(), is that the variable youre doing comparisons over has to be a character or a factor. Notice the error we get when we try to do a Tukey test over the months in the flights dataset.

flights

## # A tibble: 336,776 x 19
##     year month   day dep_time sched_dep_time dep_delay arr_time
##    <int> <int> <int>    <int>          <int>     <dbl>    <int>
##  1  2013     1     1      517            515         2      830
##  2  2013     1     1      533            529         4      850
##  3  2013     1     1      542            540         2      923
##  4  2013     1     1      544            545        -1     1004
##  5  2013     1     1      554            600        -6      812
##  6  2013     1     1      554            558        -4      740
##  7  2013     1     1      555            600        -5      913
##  8  2013     1     1      557            600        -3      709
##  9  2013     1     1      557            600        -3      838
## 10  2013     1     1      558            600        -2      753
## # ... with 336,766 more rows, and 12 more variables: sched_arr_time <int>,
## #   arr_delay <dbl>, carrier <chr>, flight <int>, tailnum <chr>,
## #   origin <chr>, dest <chr>, air_time <dbl>, distance <dbl>, hour <dbl>,
## #   minute <dbl>, time_hour <dttm>

#aov(dep_time ~ month, data = flights) %>% TukeyHSD()

Fix the problem by wrapping the numeric column thats not really numeric in either as.factor() or as.character()

# as.factor()
aov(dep_time ~ as.factor(month), data = flights) %>% TukeyHSD() %>% tidy()

## # A tibble: 66 x 6
##    term             comparison estimate conf.low conf.high adj.p.value
##    <chr>            <chr>         <dbl>    <dbl>     <dbl>       <dbl>
##  1 as.factor(month) 2-1           0.365   -13.9     14.6        1     
##  2 as.factor(month) 3-1          12.3      -1.39    26.0        0.128 
##  3 as.factor(month) 4-1           6.06     -7.66    19.8        0.955 
##  4 as.factor(month) 5-1           3.96     -9.69    17.6        0.999 
##  5 as.factor(month) 6-1           3.63    -10.1     17.4        0.999 
##  6 as.factor(month) 7-1           5.95     -7.67    19.6        0.958 
##  7 as.factor(month) 8-1           3.03    -10.6     16.6        1.000 
##  8 as.factor(month) 9-1         -13.1     -26.9      0.683      0.0808
##  9 as.factor(month) 10-1         -7.10    -20.7      6.50       0.866 
## 10 as.factor(month) 11-1         -2.78    -16.6     11.0        1.000 
## # ... with 56 more rows

# as.character()
aov(dep_time ~ as.character(month), data = flights) %>% TukeyHSD() %>% tidy()

## # A tibble: 66 x 6
##    term                comparison estimate conf.low conf.high adj.p.value
##    <chr>               <chr>         <dbl>    <dbl>     <dbl>       <dbl>
##  1 as.character(month) 10-1         -7.10    -20.7       6.50       0.866
##  2 as.character(month) 11-1         -2.78    -16.6      11.0        1.000
##  3 as.character(month) 12-1          9.98     -3.80     23.8        0.429
##  4 as.character(month) 2-1           0.365   -13.9      14.6        1    
##  5 as.character(month) 3-1          12.3      -1.39     26.0        0.128
##  6 as.character(month) 4-1           6.06     -7.66     19.8        0.955
##  7 as.character(month) 5-1           3.96     -9.69     17.6        0.999
##  8 as.character(month) 6-1           3.63    -10.1      17.4        0.999
##  9 as.character(month) 7-1           5.95     -7.67     19.6        0.958
## 10 as.character(month) 8-1           3.03    -10.6      16.6        1.000
## # ... with 56 more rows
…
augment()

augment() adds information from your test/model back to a data table

lm(Sepal.Width ~ Species, data = iris) %>% augment(iris) -> iris_lm

iris_lm

## # A tibble: 150 x 12
##    Sepal.Length Sepal.Width Petal.Length Petal.Width Species .fitted
##  *        <dbl>       <dbl>        <dbl>       <dbl> <fct>     <dbl>
##  1          5.1         3.5          1.4         0.2 setosa     3.43
##  2          4.9         3            1.4         0.2 setosa     3.43
##  3          4.7         3.2          1.3         0.2 setosa     3.43
##  4          4.6         3.1          1.5         0.2 setosa     3.43
##  5          5           3.6          1.4         0.2 setosa     3.43
##  6          5.4         3.9          1.7         0.4 setosa     3.43
##  7          4.6         3.4          1.4         0.3 setosa     3.43
##  8          5           3.4          1.5         0.2 setosa     3.43
##  9          4.4         2.9          1.4         0.2 setosa     3.43
## 10          4.9         3.1          1.5         0.1 setosa     3.43
## # ... with 140 more rows, and 6 more variables: .se.fit <dbl>,
## #   .resid <dbl>, .hat <dbl>, .sigma <dbl>, .cooksd <dbl>,
## #   .std.resid <dbl>
…
